lab3/lab3/tb_svn_seg_decoder.vcd
$date
   Tue Apr 26 16:04:40 2022
$end
$version
  2021.2
$end
$timescale
  1ps
$end
$scope module tb_svn_seg_decoder $end
$var reg 4 ! in_code [3:0] $end
$var reg 1 " display_on $end
$var reg 7 # data_out [6:0] $end
$var reg 12 $ single_vector [11:0] $end
$var integer 32 % index [31:0] $end
$var integer 32 & mm_count [31:0] $end
$scope module uut $end
$var reg 7 # seg_out [6:0] $end
$var wire 4 ' bcd_in [3:0] $end
$var wire 1 ( display_on $end
$upscope $end
$upscope $end
$enddefinitions $end
#0
$dumpvars
b0 !
1"
b1000000 #
b100001000000 $
b0 %
b0 &
b0 '
1(
$end
#20000
b1 !
b1111001 #
b100011111001 $
b1 %
b1 '
#40000
b10 !
b100100 #
b100100100100 $
b10 %
b10 '
#60000
b11 !
b110000 #
b100110110000 $
b11 %
b11 '
#80000
b100 !
b11001 #
b101000011001 $
b100 %
b100 '
#100000
b101 !
b10010 #
b101010010010 $
b101 %
b101 '
#120000
b110 !
b10 #
b101100000010 $
b110 %
b110 '
#140000
b111 !
b1111000 #
b101111111000 $
b111 %
b111 '
#160000
b1000 !
b0 #
b110000000000 $
b1000 %
b1000 '
#180000
b1001 !
b10000 #
b110010010000 $
b1001 %
b1001 '
#200000
b1010 !
b100000 #
b110100100000 $
b1010 %
b1010 '
#220000
b1011 !
b11 #
b110110000011 $
b1011 %
b1011 '
#240000
b1100 !
b1000110 #
b111001000110 $
b1100 %
b1100 '
#260000
b1101 !
b100001 #
b111010100001 $
b1101 %
b1101 '
#280000
b1110 !
b110 #
b111100000110 $
b1110 %
b1110 '
#300000
b1111 !
b1110 #
b111110001110 $
b1111 %
b1111 '
#320000
b0 !
0"
b1111111 #
b1111111 $
b10000 %
b0 '
0(
#340000
b1 !
b1111111 #
b11111111 $
b10001 %
b1 '
#360000
b10 !
b1111111 #
b101111111 $
b10010 %
b10 '
#380000
b11 !
b1111111 #
b111111111 $
b10011 %
b11 '
#400000
b100 !
b1111111 #
b1001111111 $
b10100 %
b100 '
#420000
b101 !
b1111111 #
b1011111111 $
b10101 %
b101 '
#440000
b110 !
b1111111 #
b1101111111 $
b10110 %
b110 '
#460000
b111 !
b1111111 #
b1111111111 $
b10111 %
b111 '
#480000
b1000 !
b1111111 #
b10001111111 $
b11000 %
b1000 '
#500000
b1001 !
b1111111 #
b10011111111 $
b11001 %
b1001 '
#520000
b1010 !
b1111111 #
b10101111111 $
b11010 %
b1010 '
#540000
b1011 !
b1111111 #
b10111111111 $
b11011 %
b1011 '
#560000
b1100 !
b1111111 #
b11001111111 $
b11100 %
b1100 '
#580000
b1101 !
b1111111 #
b11011111111 $
b11101 %
b1101 '
#600000
b1110 !
b1111111 #
b11101111111 $
b11110 %
b1110 '
#620000
b1111 !
b1111111 #
b11111111111 $
b11111 %
b1111 '
#640000
b100000 %
