lab5a/tb_top_latch.vcd
$date
	Tue Apr 12 13:11:41 2022
$end
$version
	ModelSim Version 2020.1
$end
$timescale
	1ps
$end

$scope module tb_top_latch $end
$var parameter 32 ! ROWS $end
$var parameter 32 " INPUTS $end
$var parameter 32 # OUTPUTS $end
$var reg 4 $ data_in [3:0] $end
$var reg 5 % expected_out [4:0] $end
$var reg 5 & sim_out [4:0] $end
$var integer 32 ' i $end
$var integer 32 ( mm_count $end

$scope module uut $end
$var reg 1 ) qa $end
$var reg 1 * qb $end
$var reg 1 + q_lvl $end
$var reg 1 , q_latch $end
$var reg 1 - q_ff $end
$var wire 1 . s $end
$var wire 1 / r $end
$var wire 1 0 d $end
$var wire 1 1 ck $end

$scope module u_sr $end
$var reg 1 2 qa $end
$var reg 1 3 qb $end
$var wire 1 . s $end
$var wire 1 / r $end
$upscope $end

$scope module u_lvl $end
$var reg 1 4 q $end
$var wire 1 . s $end
$var wire 1 / r $end
$var wire 1 1 c $end
$var reg 1 5 s1 $end
$var reg 1 6 r1 $end

$scope module u_sr $end
$var reg 1 7 qa $end
$var reg 1 8 qb $end
$var wire 1 9 s $end
$var wire 1 : r $end
$upscope $end
$upscope $end

$scope module u_tra $end
$var reg 1 ; q $end
$var wire 1 0 d $end
$var wire 1 1 c $end

$scope module u_lvl $end
$var reg 1 < q $end
$var wire 1 0 s $end
$var wire 1 = r $end
$var wire 1 1 c $end
$var reg 1 > s1 $end
$var reg 1 ? r1 $end

$scope module u_sr $end
$var reg 1 @ qa $end
$var reg 1 A qb $end
$var wire 1 B s $end
$var wire 1 C r $end
$upscope $end
$upscope $end
$upscope $end

$scope module u_diff $end
$var reg 1 D q $end
$var wire 1 0 d $end
$var wire 1 1 clk $end
$var reg 1 E q_to_d $end

$scope module u_master $end
$var reg 1 F q $end
$var wire 1 0 d $end
$var wire 1 G c $end

$scope module u_lvl $end
$var reg 1 H q $end
$var wire 1 0 s $end
$var wire 1 I r $end
$var wire 1 G c $end
$var reg 1 J s1 $end
$var reg 1 K r1 $end

$scope module u_sr $end
$var reg 1 L qa $end
$var reg 1 M qb $end
$var wire 1 N s $end
$var wire 1 O r $end
$upscope $end
$upscope $end
$upscope $end

$scope module u_servant $end
$var reg 1 P q $end
$var wire 1 Q d $end
$var wire 1 1 c $end

$scope module u_lvl $end
$var reg 1 R q $end
$var wire 1 Q s $end
$var wire 1 S r $end
$var wire 1 1 c $end
$var reg 1 T s1 $end
$var reg 1 U r1 $end

$scope module u_sr $end
$var reg 1 V qa $end
$var reg 1 W qb $end
$var wire 1 X s $end
$var wire 1 Y r $end
$upscope $end
$upscope $end
$upscope $end
$upscope $end
$upscope $end
$upscope $end

$scope begin std $end
$upscope $end
$enddefinitions $end
#0
$dumpvars
b1110 $
bx1001 %
bx1001 &
1)
0*
0+
1,
x-
12
03
04
05
16
17
08
1;
1<
1>
0?
0@
1A
xD
xE
xF
xH
0J
0K
xL
xM
xP
xR
xT
xU
xV
xW
b11110 !
b100 "
b101 #
b0 '
b0 (
0.
1/
10
11
09
1:
0=
1B
0C
0G
0I
0N
0O
xQ
xS
xX
xY
$end
#20000
b1 '
b110 $
01
1G
1J
06
0>
0T
0U
1N
0:
0B
0X
0Y
0L
1M
1H
1F
1E
1Q
0S
#40000
b10 '
b11001 %
b1110 $
11
0G
0J
16
1>
1T
0N
1:
1B
1X
0V
1W
1R
1P
1D
1-
b11001 &
#60000
b11 '
b11000 %
b111 $
1.
01
1G
1J
06
0>
0T
02
0)
1N
0:
0B
0X
b11000 &
#80000
b100 '
b11001 %
b110 $
0.
12
1)
b11001 &
#100000
b101 '
b11010 %
b101 $
1.
0/
02
0)
13
1*
b11000 &
b11010 &
#120000
b110 '
b100 $
0.
#140000
b111 '
b11000 %
b1111 $
1.
1/
11
0G
0J
1>
1T
03
16
15
0*
0N
1B
1X
1:
19
07
b11000 &
#160000
b1000 '
b11001 %
b1110 $
0.
12
05
1)
09
17
b11001 &
#180000
b1001 '
b11110 %
b1101 $
1.
0/
06
02
15
0)
13
0:
19
07
18
1*
b11000 &
b11010 &
14
1+
b11110 &
#200000
b1010 '
b1100 $
0.
05
09
#220000
b1011 '
#240000
b1100 '
b0 $
00
01
1G
1=
1I
1K
0T
0>
1O
0X
0B
0M
0H
1L
0F
0E
0Q
1S
#260000
b1101 '
b110 %
b1000 $
11
0G
0K
1?
1U
0O
1C
1Y
0W
0A
0<
1@
0R
1V
0P
0;
0,
0D
0-
b10110 &
b110 &
#280000
b1110 '
b1110 %
b1100 $
10
0=
0I
0?
1>
0C
1B
0@
1A
1<
1;
1,
b1110 &
#300000
b1111 '
b100 $
01
1G
1J
0>
0U
1N
0B
0Y
0L
1M
1H
1F
1E
1Q
0S
#320000
b10000 '
b0 $
00
1=
1I
1K
0J
1O
0N
0M
0H
1L
0F
0E
0Q
1S
#340000
b10001 '
b100 $
10
0=
0I
0K
1J
0O
1N
0L
1M
1H
1F
1E
1Q
0S
#360000
b10010 '
b11110 %
b1100 $
11
0G
0J
1>
1T
0N
1B
1X
0V
1W
1R
1P
1D
1-
b11110 &
#380000
b10011 '
b100 $
01
1G
1J
0>
0T
1N
0B
0X
#400000
b10100 '
b0 $
00
1=
1I
1K
0J
1O
0N
0M
0H
1L
0F
0E
0Q
1S
#420000
b10101 '
b110 %
b1000 $
11
0G
0K
1?
1U
0O
1C
1Y
0W
0A
0<
1@
0R
1V
0P
0;
0,
0D
0-
b10110 &
b110 &
#440000
b10110 '
b0 $
01
1G
1K
0?
0U
1O
0C
0Y
#460000
b10111 '
b1000 $
11
0G
0K
1?
1U
0O
1C
1Y
#480000
b11000 '
b1110 %
b1100 $
10
0=
0I
0?
1>
0C
1B
0@
1A
1<
1;
1,
b1110 &
#500000
b11001 '
b110 %
b1000 $
00
1=
1I
1?
0>
1C
0B
0A
0<
1@
0;
0,
b110 &
#520000
b11010 '
#540000
b11011 '
b1110 %
b1100 $
10
0=
0I
0?
1>
0C
1B
0@
1A
1<
1;
1,
b1110 &
#560000
b11100 '
b100 $
01
1G
1J
0>
0U
1N
0B
0Y
0L
1M
1H
1F
1E
1Q
0S
#580000
b11101 '
b0 $
00
1=
1I
1K
0J
1O
0N
0M
0H
1L
0F
0E
0Q
1S
#600000
b11110 '
