lab7a/tb_rc_fsm.vcd
$date
   Thu Apr 21 10:41:54 2022
$end
$version
  2021.2
$end
$timescale
  1ps
$end
$scope module tb_rc_fsm $end
$var reg 3 ! data_in [2:0] $end
$var reg 3 " expected_out [2:0] $end
$var reg 3 # sim_out [2:0] $end
$var integer 32 $ i [31:0] $end
$var integer 32 % mm_count [31:0] $end
$var reg 1 & clk $end
$scope module uut $end
$var reg 1 ' enable $end
$var reg 1 ( up_down $end
$var reg 1 ) error $end
$var wire 2 * quad_ctl [1:0] $end
$var wire 1 + rst $end
$var wire 1 , clk $end
$var reg 2 - state $end
$var reg 2 . next_state $end
$upscope $end
$upscope $end
$enddefinitions $end
#0
$dumpvars
bx !
bx "
b0 #
bx $
b0 %
1&
0'
0(
0)
bx *
x+
1,
bx -
bx .
$end
#5000
b100 !
b0 "
b0 #
b0 $
0&
0'
0(
0)
b0 *
1+
0,
b0 .
#10000
b0 #
1&
0'
0(
0)
1,
b0 -
b0 .
#15000
b0 !
b0 "
b0 #
b1 $
0&
0'
0(
0)
0+
0,
b0 .
#20000
1&
1,
b0 -
#25000
b0 !
b0 "
b10 $
0&
0,
#30000
1&
1,
b0 -
#35000
b1 !
b110 "
b0 #
b11 $
0&
0'
0(
0)
b1 *
0,
b1 .
#40000
b110 #
1&
1'
1(
0)
1,
b1 -
b1 .
#45000
b0 !
b0 "
b110 #
b100 $
0&
1'
1(
0)
b0 *
0,
b0 .
#50000
b0 #
1&
0'
0(
0)
1,
b0 -
b0 .
#55000
b10 !
b100 "
b0 #
b101 $
0&
0'
0(
0)
b10 *
0,
b10 .
#60000
b100 #
1&
1'
0(
0)
1,
b10 -
b10 .
#65000
b0 !
b0 "
b100 #
b110 $
0&
1'
0(
0)
b0 *
0,
b0 .
#70000
b0 #
1&
0'
0(
0)
1,
b0 -
b0 .
#75000
b11 !
b1 "
b0 #
b111 $
0&
0'
0(
0)
b11 *
0,
b11 .
#80000
b1 #
1&
0'
0(
1)
1,
b11 -
b11 .
#85000
b0 !
b1 "
b1 #
b1000 $
0&
0'
0(
1)
b0 *
0,
b11 .
#90000
1&
1,
b11 -
#95000
b1 !
b1 "
b1 #
b1001 $
0&
0'
0(
1)
b1 *
0,
b11 .
#100000
1&
1,
b11 -
#105000
b10 !
b1 "
b1 #
b1010 $
0&
0'
0(
1)
b10 *
0,
b11 .
#110000
1&
1,
b11 -
#115000
b11 !
b1 "
b1 #
b1011 $
0&
0'
0(
1)
b11 *
0,
b11 .
#120000
1&
1,
b11 -
#125000
b100 !
b0 "
b0 #
b1100 $
0&
0'
0(
0)
b0 *
1+
0,
b0 .
#130000
b0 #
1&
0'
0(
0)
1,
b0 -
b0 .
#135000
b1 !
b110 "
b0 #
b1101 $
0&
0'
0(
0)
b1 *
0+
0,
b1 .
#140000
b110 #
1&
1'
1(
0)
1,
b1 -
b1 .
#145000
b10 !
b100 "
b110 #
b1110 $
0&
1'
1(
0)
b10 *
0,
b10 .
#150000
b100 #
1&
1'
0(
0)
1,
b10 -
b10 .
#155000
b0 !
b0 "
b100 #
b1111 $
0&
1'
0(
0)
b0 *
0,
b0 .
#160000
b0 #
1&
0'
0(
0)
1,
b0 -
b0 .
#165000
b10 !
b100 "
b0 #
b10000 $
0&
0'
0(
0)
b10 *
0,
b10 .
#170000
b100 #
1&
1'
0(
0)
1,
b10 -
b10 .
#175000
b1 !
b110 "
b100 #
b10001 $
0&
1'
0(
0)
b1 *
0,
b1 .
#180000
b110 #
1&
1'
1(
0)
1,
b1 -
b1 .
#185000
b0 !
b0 "
b110 #
b10010 $
0&
1'
1(
0)
b0 *
0,
b0 .
#190000
b0 #
1&
0'
0(
0)
1,
b0 -
b0 .
#195000
b1 !
b110 "
b0 #
b10011 $
0&
0'
0(
0)
b1 *
0,
b1 .
#200000
b110 #
1&
1'
1(
0)
1,
b1 -
b1 .
#205000
b1 !
b110 "
b10100 $
0&
0,
#210000
1&
1,
b1 -
#215000
b11 !
b1 "
b110 #
b10101 $
0&
1'
1(
0)
b11 *
0,
b11 .
#220000
b1 #
1&
0'
0(
1)
1,
b11 -
b11 .
#225000
b100 !
b0 "
b0 #
b10110 $
0&
0'
0(
0)
b0 *
1+
0,
b0 .
#230000
b0 #
1&
0'
0(
0)
1,
b0 -
b0 .
#235000
b1 !
b110 "
b0 #
b10111 $
0&
0'
0(
0)
b1 *
0+
0,
b1 .
#240000
b110 #
1&
1'
1(
0)
1,
b1 -
b1 .
#245000
b11 !
b1 "
b110 #
b11000 $
0&
1'
1(
0)
b11 *
0,
b11 .
#250000
b1 #
1&
0'
0(
1)
1,
b11 -
b11 .
#255000
b11 !
b1 "
b11001 $
0&
0,
#260000
1&
1,
b11 -
#265000
b100 !
b0 "
b0 #
b11010 $
0&
0'
0(
0)
b0 *
1+
0,
b0 .
#270000
b0 #
1&
0'
0(
0)
1,
b0 -
b0 .
#275000
b10 !
b100 "
b0 #
b11011 $
0&
0'
0(
0)
b10 *
0+
0,
b10 .
#280000
b100 #
1&
1'
0(
0)
1,
b10 -
b10 .
#285000
b10 !
b100 "
b11100 $
0&
0,
#290000
1&
1,
b10 -
#295000
b11 !
b1 "
b100 #
b11101 $
0&
1'
0(
0)
b11 *
0,
b11 .
#300000
b1 #
1&
0'
0(
1)
1,
b11 -
b11 .
#305000
b100 !
b0 "
b0 #
b11110 $
0&
0'
0(
0)
b0 *
1+
0,
b0 .
#310000
b0 #
1&
0'
0(
0)
1,
b0 -
b0 .
#315000
b10 !
b100 "
b0 #
b11111 $
0&
0'
0(
0)
b10 *
0+
0,
b10 .
#320000
b100 #
1&
1'
0(
0)
1,
b10 -
b10 .
#325000
b11 !
b1 "
b100 #
b100000 $
0&
1'
0(
0)
b11 *
0,
b11 .
#330000
b1 #
1&
0'
0(
1)
1,
b11 -
b11 .
#335000
b11 !
b1 "
b100001 $
0&
0,
#340000
1&
1,
b11 -
#345000
b100 !
b0 "
b0 #
b100010 $
0&
0'
0(
0)
b0 *
1+
0,
b0 .
#350000
b0 #
1&
0'
0(
0)
1,
b0 -
b0 .
#355000
b100011 $
0&
0,
