lab7a/tb_up_down_count_dp.vcd
$date
   Wed Apr 20 13:47:07 2022
$end
$version
  2021.2
$end
$timescale
  1ps
$end
$scope module tb_up_down_count_dp $end
$var reg 3 ! data_in [2:0] $end
$var reg 16 " expected_out [15:0] $end
$var reg 16 # sim_out [15:0] $end
$var integer 32 $ i [31:0] $end
$var integer 32 % mm_count [31:0] $end
$var reg 1 & clk $end
$scope module uut $end
$var reg 4 ' digit3 [15:12] $end
$var reg 4 ( digit2 [11:8] $end
$var reg 4 ) digit1 [7:4] $end
$var reg 4 * digit0 [3:0] $end
$var wire 1 + enable $end
$var wire 1 , up_down $end
$var wire 1 - rst $end
$var wire 1 . clk $end
$var reg 1 / c_out0 $end
$var reg 1 0 c_out1 $end
$var reg 1 1 c_out2 $end
$scope module u_bcd0 $end
$var reg 4 * bcd [3:0] $end
$var reg 1 / carry_out $end
$var wire 1 + carry_in $end
$var wire 1 , up_down $end
$var wire 1 - rst $end
$var wire 1 . clk $end
$var reg 4 2 next_bcd [3:0] $end
$upscope $end
$scope module u_bcd1 $end
$var reg 4 ) bcd [7:4] $end
$var reg 1 0 carry_out $end
$var wire 1 3 carry_in $end
$var wire 1 , up_down $end
$var wire 1 - rst $end
$var wire 1 . clk $end
$var reg 4 4 next_bcd [3:0] $end
$upscope $end
$scope module u_bcd2 $end
$var reg 4 ( bcd [11:8] $end
$var reg 1 1 carry_out $end
$var wire 1 5 carry_in $end
$var wire 1 , up_down $end
$var wire 1 - rst $end
$var wire 1 . clk $end
$var reg 4 6 next_bcd [3:0] $end
$upscope $end
$scope module u_bcd3 $end
$var reg 4 ' bcd [15:12] $end
$var reg 1 7 carry_out $end
$var wire 1 8 carry_in $end
$var wire 1 , up_down $end
$var wire 1 - rst $end
$var wire 1 . clk $end
$var reg 4 9 next_bcd [3:0] $end
$upscope $end
$upscope $end
$upscope $end
$enddefinitions $end
#0
$dumpvars
bx !
bx "
bx #
bx $
b0 %
1&
bx '
bx (
bx )
bx *
x+
x,
x-
1.
0/
00
01
bx 2
03
bx 4
05
bx 6
07
08
bx 9
$end
#5000
b100 !
b0 "
b0 $
0&
0+
0,
1-
0.
0/
00
01
b0 2
b0 4
b0 6
07
b0 9
#10000
b0 #
1&
b0 '
b0 (
b0 )
b0 *
1.
0/
00
01
b0 2
b0 4
b0 6
07
b0 9
#15000
b0 !
b0 "
b1 $
0&
0-
0.
0/
00
01
b0 2
b0 4
b0 6
07
b0 9
#20000
b0 #
1&
b0 '
b0 (
b0 )
b0 *
1.
#25000
b11 !
b1 "
b10 $
0&
1+
1,
0.
0/
00
01
b1 2
b0 4
b0 6
07
b0 9
#30000
b1 #
1&
b0 '
b0 (
b0 )
b1 *
1.
0/
b10 2
#35000
b11 !
b10 "
b11 $
0&
0.
#40000
b10 #
1&
b0 '
b0 (
b0 )
b10 *
1.
0/
b11 2
#45000
b11 !
b11 "
b100 $
0&
0.
#50000
b11 #
1&
b0 '
b0 (
b0 )
b11 *
1.
0/
b100 2
#55000
b11 !
b100 "
b101 $
0&
0.
#60000
b100 #
1&
b0 '
b0 (
b0 )
b100 *
1.
0/
b101 2
#65000
b11 !
b101 "
b110 $
0&
0.
#70000
b101 #
1&
b0 '
b0 (
b0 )
b101 *
1.
0/
b110 2
#75000
b11 !
b110 "
b111 $
0&
0.
#80000
b110 #
1&
b0 '
b0 (
b0 )
b110 *
1.
0/
b111 2
#85000
b11 !
b111 "
b1000 $
0&
0.
#90000
b111 #
1&
b0 '
b0 (
b0 )
b111 *
1.
0/
b1000 2
#95000
b11 !
b1000 "
b1001 $
0&
0.
#100000
b1000 #
1&
b0 '
b0 (
b0 )
b1000 *
1.
0/
b1001 2
#105000
b11 !
b1001 "
b1010 $
0&
0.
#110000
b1001 #
1&
b0 '
b0 (
b0 )
b1001 *
1.
1/
00
b0 2
13
b1 4
#115000
b11 !
b10000 "
b1011 $
0&
0.
#120000
b10000 #
1&
b0 '
b0 (
b1 )
b0 *
1.
0/
00
b1 2
03
b1 4
#125000
b11 !
b10001 "
b1100 $
0&
0.
#130000
b10001 #
1&
b0 '
b0 (
b1 )
b1 *
1.
0/
b10 2
#135000
b11 !
b10010 "
b1101 $
0&
0.
#140000
b10010 #
1&
b0 '
b0 (
b1 )
b10 *
1.
0/
b11 2
#145000
b11 !
b10011 "
b1110 $
0&
0.
#150000
b10011 #
1&
b0 '
b0 (
b1 )
b11 *
1.
0/
b100 2
#155000
b11 !
b10100 "
b1111 $
0&
0.
#160000
b10100 #
1&
b0 '
b0 (
b1 )
b100 *
1.
0/
b101 2
#165000
b100 !
b0 "
b10000 $
0&
0+
0,
1-
0.
0/
00
01
b0 2
b0 4
b0 6
07
b0 9
#170000
b0 #
1&
b0 '
b0 (
b0 )
b0 *
1.
0/
00
b0 2
b0 4
#175000
b10 !
b1001100110011001 "
b10001 $
0&
1+
0-
0.
1/
10
11
b1001 2
13
b1001 4
15
b1001 6
17
18
b1001 9
#180000
b1001100110011001 #
1&
b1001 '
b1001 (
b1001 )
b1001 *
1.
0/
00
01
b1000 2
03
b1001 4
05
b1001 6
07
08
b1001 9
#185000
b10 !
b1001100110011000 "
b10010 $
0&
0.
#190000
b1001100110011000 #
1&
b1001 '
b1001 (
b1001 )
b1000 *
1.
0/
b111 2
#195000
b10 !
b1001100110010111 "
b10011 $
0&
0.
#200000
b1001100110010111 #
1&
b1001 '
b1001 (
b1001 )
b111 *
1.
0/
b110 2
#205000
b10 !
b1001100110010110 "
b10100 $
0&
0.
#210000
b1001100110010110 #
1&
b1001 '
b1001 (
b1001 )
b110 *
1.
0/
b101 2
#215000
b10 !
b1001100110010101 "
b10101 $
0&
0.
#220000
b1001100110010101 #
1&
b1001 '
b1001 (
b1001 )
b101 *
1.
0/
b100 2
#225000
b10 !
b1001100110010100 "
b10110 $
0&
0.
#230000
b1001100110010100 #
1&
b1001 '
b1001 (
b1001 )
b100 *
1.
0/
b11 2
#235000
b11 !
b1001100110010101 "
b10111 $
0&
1,
0.
0/
00
01
b101 2
b1001 4
b1001 6
07
b1001 9
#240000
b1001100110010101 #
1&
b1001 '
b1001 (
b1001 )
b101 *
1.
0/
b110 2
#245000
b11 !
b1001100110010110 "
b11000 $
0&
0.
#250000
b1001100110010110 #
1&
b1001 '
b1001 (
b1001 )
b110 *
1.
0/
b111 2
#255000
b11 !
b1001100110010111 "
b11001 $
0&
0.
#260000
b1001100110010111 #
1&
b1001 '
b1001 (
b1001 )
b111 *
1.
0/
b1000 2
#265000
b11 !
b1001100110011000 "
b11010 $
0&
0.
#270000
b1001100110011000 #
1&
b1001 '
b1001 (
b1001 )
b1000 *
1.
0/
b1001 2
#275000
b11 !
b1001100110011001 "
b11011 $
0&
0.
#280000
b1001100110011001 #
1&
b1001 '
b1001 (
b1001 )
b1001 *
1.
1/
10
11
b0 2
13
b0 4
15
b0 6
17
18
b0 9
#285000
b11 !
b0 "
b11100 $
0&
0.
#290000
b0 #
1&
b0 '
b0 (
b0 )
b0 *
1.
0/
00
01
b1 2
03
b0 4
05
b0 6
07
08
b0 9
#295000
b11 !
b1 "
b11101 $
0&
0.
#300000
b1 #
1&
b0 '
b0 (
b0 )
b1 *
1.
0/
b10 2
#305000
b11110 $
0&
0.
