lab6/tb_alu_1.vcd
$date
	Wed Apr  6 14:24:09 2022
$end
$version
	ModelSim Version 2020.1
$end
$timescale
	1ps
$end

$scope module tb_alu_1 $end
$var parameter 32 ! COLUMNS $end
$var parameter 32 " INPUTS $end
$var parameter 32 # ROWS $end
$var reg 3 $ sel [2:0] $end
$var reg 4 % a [3:0] $end
$var reg 4 & b [3:0] $end
$var reg 1 ' c_in $end
$var reg 4 ( f [3:0] $end
$var reg 1 ) c_out $end
$var reg 17 * single_vector [16:0] $end
$var integer 32 + i $end
$var integer 32 , mm_count $end

$scope module uut $end
$var reg 4 - f [3:0] $end
$var reg 1 . c_out $end
$var wire 1 / sel [2] $end
$var wire 1 0 sel [1] $end
$var wire 1 1 sel [0] $end
$var wire 1 2 a [3] $end
$var wire 1 3 a [2] $end
$var wire 1 4 a [1] $end
$var wire 1 5 a [0] $end
$var wire 1 6 b [3] $end
$var wire 1 7 b [2] $end
$var wire 1 8 b [1] $end
$var wire 1 9 b [0] $end
$var wire 1 : c_in $end
$var reg 5 ; sum [4:0] $end
$upscope $end
$upscope $end

$scope begin std $end
$upscope $end
$enddefinitions $end
#0
$dumpvars
b0 $
b0 %
b0 &
0'
b0 (
0)
b0 -
0.
bx ;
b0 *
b10001 !
b1100 "
b1000000000000 #
b0 +
b0 ,
01
00
0/
05
04
03
02
09
08
07
06
0:
$end
#20000
b1 +
b10000000000 *
b1 %
15
#40000
b10 +
b100000000000 *
b10 %
05
14
#60000
b11 +
b110000000000 *
b11 %
15
#80000
b100 +
b1000000000000 *
b100 %
05
04
13
#100000
b101 +
b1010000000000 *
b101 %
15
#120000
b110 +
b1100000000000 *
b110 %
05
14
#140000
b111 +
b1110000000000 *
b111 %
15
#160000
b1000 +
b10000000000000 *
b1000 %
05
04
03
12
#180000
b1001 +
b10010000000000 *
b1001 %
15
#200000
b1010 +
b10100000000000 *
b1010 %
05
14
#220000
b1011 +
b10110000000000 *
b1011 %
15
#240000
b1100 +
b11000000000000 *
b1100 %
05
04
13
#260000
b1101 +
b11010000000000 *
b1101 %
15
#280000
b1110 +
b11100000000000 *
b1110 %
05
14
#300000
b1111 +
b11110000000000 *
b1111 %
15
#320000
b10000 +
b1000001 *
b1 &
b0 %
05
04
03
02
19
b1 -
b1 (
#340000
b10001 +
b10001000001 *
b1 %
15
#360000
b10010 +
b100001000001 *
b10 %
05
14
#380000
b10011 +
b110001000001 *
b11 %
15
#400000
b10100 +
b1000001000001 *
b100 %
05
04
13
#420000
b10101 +
b1010001000001 *
b101 %
15
#440000
b10110 +
b1100001000001 *
b110 %
05
14
#460000
b10111 +
b1110001000001 *
b111 %
15
#480000
b11000 +
b10000001000001 *
b1000 %
05
04
03
12
#500000
b11001 +
b10010001000001 *
b1001 %
15
#520000
b11010 +
b10100001000001 *
b1010 %
05
14
#540000
b11011 +
b10110001000001 *
b1011 %
15
#560000
b11100 +
b11000001000001 *
b1100 %
05
04
13
#580000
b11101 +
b11010001000001 *
b1101 %
15
#600000
b11110 +
b11100001000001 *
b1110 %
05
14
#620000
b11111 +
b11110001000001 *
b1111 %
15
#640000
b100000 +
b10000010 *
b10 &
b0 %
05
04
03
02
09
18
b10 -
b10 (
#660000
b100001 +
b10010000010 *
b1 %
15
#680000
b100010 +
b100010000010 *
b10 %
05
14
#700000
b100011 +
b110010000010 *
b11 %
15
#720000
b100100 +
b1000010000010 *
b100 %
05
04
13
#740000
b100101 +
b1010010000010 *
b101 %
15
#760000
b100110 +
b1100010000010 *
b110 %
05
14
#780000
b100111 +
b1110010000010 *
b111 %
15
#800000
b101000 +
b10000010000010 *
b1000 %
05
04
03
12
#820000
b101001 +
b10010010000010 *
b1001 %
15
#840000
b101010 +
b10100010000010 *
b1010 %
05
14
#860000
b101011 +
b10110010000010 *
b1011 %
15
#880000
b101100 +
b11000010000010 *
b1100 %
05
04
13
#900000
b101101 +
b11010010000010 *
b1101 %
15
#920000
b101110 +
b11100010000010 *
b1110 %
05
14
#940000
b101111 +
b11110010000010 *
b1111 %
15
#960000
b110000 +
b11000011 *
b11 &
b0 %
05
04
03
02
19
b11 -
b11 (
#980000
b110001 +
b10011000011 *
b1 %
15
#1000000
b110010 +
b100011000011 *
b10 %
05
14
#1020000
b110011 +
b110011000011 *
b11 %
15
#1040000
b110100 +
b1000011000011 *
b100 %
05
04
13
#1060000
b110101 +
b1010011000011 *
b101 %
15
#1080000
b110110 +
b1100011000011 *
b110 %
05
14
#1100000
b110111 +
b1110011000011 *
b111 %
15
#1120000
b111000 +
b10000011000011 *
b1000 %
05
04
03
12
#1140000
b111001 +
b10010011000011 *
b1001 %
15
#1160000
b111010 +
b10100011000011 *
b1010 %
05
14
#1180000
b111011 +
b10110011000011 *
b1011 %
15
#1200000
b111100 +
b11000011000011 *
b1100 %
05
04
13
#1220000
b111101 +
b11010011000011 *
b1101 %
15
#1240000
b111110 +
b11100011000011 *
b1110 %
05
14
#1260000
b111111 +
b11110011000011 *
b1111 %
15
#1280000
b1000000 +
b100000100 *
b100 &
b0 %
05
04
03
02
09
08
17
b100 -
b100 (
#1300000
b1000001 +
b10100000100 *
b1 %
15
#1320000
b1000010 +
b100100000100 *
b10 %
05
14
#1340000
b1000011 +
b110100000100 *
b11 %
15
#1360000
b1000100 +
b1000100000100 *
b100 %
05
04
13
#1380000
b1000101 +
b1010100000100 *
b101 %
15
#1400000
b1000110 +
b1100100000100 *
b110 %
05
14
#1420000
b1000111 +
b1110100000100 *
b111 %
15
#1440000
b1001000 +
b10000100000100 *
b1000 %
05
04
03
12
#1460000
b1001001 +
b10010100000100 *
b1001 %
15
#1480000
b1001010 +
b10100100000100 *
b1010 %
05
14
#1500000
b1001011 +
b10110100000100 *
b1011 %
15
#1520000
b1001100 +
b11000100000100 *
b1100 %
05
04
13
#1540000
b1001101 +
b11010100000100 *
b1101 %
15
#1560000
b1001110 +
b11100100000100 *
b1110 %
05
14
#1580000
b1001111 +
b11110100000100 *
b1111 %
15
#1600000
b1010000 +
b101000101 *
b101 &
b0 %
05
04
03
02
19
b101 -
b101 (
#1620000
b1010001 +
b10101000101 *
b1 %
15
#1640000
b1010010 +
b100101000101 *
b10 %
05
14
#1660000
b1010011 +
b110101000101 *
b11 %
15
#1680000
b1010100 +
b1000101000101 *
b100 %
05
04
13
#1700000
b1010101 +
b1010101000101 *
b101 %
15
#1720000
b1010110 +
b1100101000101 *
b110 %
05
14
#1740000
b1010111 +
b1110101000101 *
b111 %
15
#1760000
b1011000 +
b10000101000101 *
b1000 %
05
04
03
12
#1780000
b1011001 +
b10010101000101 *
b1001 %
15
#1800000
b1011010 +
b10100101000101 *
b1010 %
05
14
#1820000
b1011011 +
b10110101000101 *
b1011 %
15
#1840000
b1011100 +
b11000101000101 *
b1100 %
05
04
13
#1860000
b1011101 +
b11010101000101 *
b1101 %
15
#1880000
b1011110 +
b11100101000101 *
b1110 %
05
14
#1900000
b1011111 +
b11110101000101 *
b1111 %
15
#1920000
b1100000 +
b110000110 *
b110 &
b0 %
05
04
03
02
09
18
b110 -
b110 (
#1940000
b1100001 +
b10110000110 *
b1 %
15
#1960000
b1100010 +
b100110000110 *
b10 %
05
14
#1980000
b1100011 +
b110110000110 *
b11 %
15
#2000000
b1100100 +
b1000110000110 *
b100 %
05
04
13
#2020000
b1100101 +
b1010110000110 *
b101 %
15
#2040000
b1100110 +
b1100110000110 *
b110 %
05
14
#2060000
b1100111 +
b1110110000110 *
b111 %
15
#2080000
b1101000 +
b10000110000110 *
b1000 %
05
04
03
12
#2100000
b1101001 +
b10010110000110 *
b1001 %
15
#2120000
b1101010 +
b10100110000110 *
b1010 %
05
14
#2140000
b1101011 +
b10110110000110 *
b1011 %
15
#2160000
b1101100 +
b11000110000110 *
b1100 %
05
04
13
#2180000
b1101101 +
b11010110000110 *
b1101 %
15
#2200000
b1101110 +
b11100110000110 *
b1110 %
05
14
#2220000
b1101111 +
b11110110000110 *
b1111 %
15
#2240000
b1110000 +
b111000111 *
b111 &
b0 %
05
04
03
02
19
b111 -
b111 (
#2260000
b1110001 +
b10111000111 *
b1 %
15
#2280000
b1110010 +
b100111000111 *
b10 %
05
14
#2300000
b1110011 +
b110111000111 *
b11 %
15
#2320000
b1110100 +
b1000111000111 *
b100 %
05
04
13
#2340000
b1110101 +
b1010111000111 *
b101 %
15
#2360000
b1110110 +
b1100111000111 *
b110 %
05
14
#2380000
b1110111 +
b1110111000111 *
b111 %
15
#2400000
b1111000 +
b10000111000111 *
b1000 %
05
04
03
12
#2420000
b1111001 +
b10010111000111 *
b1001 %
15
#2440000
b1111010 +
b10100111000111 *
b1010 %
05
14
#2460000
b1111011 +
b10110111000111 *
b1011 %
15
#2480000
b1111100 +
b11000111000111 *
b1100 %
05
04
13
#2500000
b1111101 +
b11010111000111 *
b1101 %
15
#2520000
b1111110 +
b11100111000111 *
b1110 %
05
14
#2540000
b1111111 +
b11110111000111 *
b1111 %
15
#2560000
b10000000 +
b1000001000 *
b1000 &
b0 %
05
04
03
02
09
08
07
16
b1000 -
b1000 (
#2580000
b10000001 +
b11000001000 *
b1 %
15
#2600000
b10000010 +
b101000001000 *
b10 %
05
14
#2620000
b10000011 +
b111000001000 *
b11 %
15
#2640000
b10000100 +
b1001000001000 *
b100 %
05
04
13
#2660000
b10000101 +
b1011000001000 *
b101 %
15
#2680000
b10000110 +
b1101000001000 *
b110 %
05
14
#2700000
b10000111 +
b1111000001000 *
b111 %
15
#2720000
b10001000 +
b10001000001000 *
b1000 %
05
04
03
12
#2740000
b10001001 +
b10011000001000 *
b1001 %
15
#2760000
b10001010 +
b10101000001000 *
b1010 %
05
14
#2780000
b10001011 +
b10111000001000 *
b1011 %
15
#2800000
b10001100 +
b11001000001000 *
b1100 %
05
04
13
#2820000
b10001101 +
b11011000001000 *
b1101 %
15
#2840000
b10001110 +
b11101000001000 *
b1110 %
05
14
#2860000
b10001111 +
b11111000001000 *
b1111 %
15
#2880000
b10010000 +
b1001001001 *
b1001 &
b0 %
05
04
03
02
19
b1001 -
b1001 (
#2900000
b10010001 +
b11001001001 *
b1 %
15
#2920000
b10010010 +
b101001001001 *
b10 %
05
14
#2940000
b10010011 +
b111001001001 *
b11 %
15
#2960000
b10010100 +
b1001001001001 *
b100 %
05
04
13
#2980000
b10010101 +
b1011001001001 *
b101 %
15
#3000000
b10010110 +
b1101001001001 *
b110 %
05
14
#3020000
b10010111 +
b1111001001001 *
b111 %
15
#3040000
b10011000 +
b10001001001001 *
b1000 %
05
04
03
12
#3060000
b10011001 +
b10011001001001 *
b1001 %
15
#3080000
b10011010 +
b10101001001001 *
b1010 %
05
14
#3100000
b10011011 +
b10111001001001 *
b1011 %
15
#3120000
b10011100 +
b11001001001001 *
b1100 %
05
04
13
#3140000
b10011101 +
b11011001001001 *
b1101 %
15
#3160000
b10011110 +
b11101001001001 *
b1110 %
05
14
#3180000
b10011111 +
b11111001001001 *
b1111 %
15
#3200000
b10100000 +
b1010001010 *
b1010 &
b0 %
05
04
03
02
09
18
b1010 -
b1010 (
#3220000
b10100001 +
b11010001010 *
b1 %
15
#3240000
b10100010 +
b101010001010 *
b10 %
05
14
#3260000
b10100011 +
b111010001010 *
b11 %
15
#3280000
b10100100 +
b1001010001010 *
b100 %
05
04
13
#3300000
b10100101 +
b1011010001010 *
b101 %
15
#3320000
b10100110 +
b1101010001010 *
b110 %
05
14
#3340000
b10100111 +
b1111010001010 *
b111 %
15
#3360000
b10101000 +
b10001010001010 *
b1000 %
05
04
03
12
#3380000
b10101001 +
b10011010001010 *
b1001 %
15
#3400000
b10101010 +
b10101010001010 *
b1010 %
05
14
#3420000
b10101011 +
b10111010001010 *
b1011 %
15
#3440000
b10101100 +
b11001010001010 *
b1100 %
05
04
13
#3460000
b10101101 +
b11011010001010 *
b1101 %
15
#3480000
b10101110 +
b11101010001010 *
b1110 %
05
14
#3500000
b10101111 +
b11111010001010 *
b1111 %
15
#3520000
b10110000 +
b1011001011 *
b1011 &
b0 %
05
04
03
02
19
b1011 -
b1011 (
#3540000
b10110001 +
b11011001011 *
b1 %
15
#3560000
b10110010 +
b101011001011 *
b10 %
05
14
#3580000
b10110011 +
b111011001011 *
b11 %
15
#3600000
b10110100 +
b1001011001011 *
b100 %
05
04
13
#3620000
b10110101 +
b1011011001011 *
b101 %
15
#3640000
b10110110 +
b1101011001011 *
b110 %
05
14
#3660000
b10110111 +
b1111011001011 *
b111 %
15
#3680000
b10111000 +
b10001011001011 *
b1000 %
05
04
03
12
#3700000
b10111001 +
b10011011001011 *
b1001 %
15
#3720000
b10111010 +
b10101011001011 *
b1010 %
05
14
#3740000
b10111011 +
b10111011001011 *
b1011 %
15
#3760000
b10111100 +
b11001011001011 *
b1100 %
05
04
13
#3780000
b10111101 +
b11011011001011 *
b1101 %
15
#3800000
b10111110 +
b11101011001011 *
b1110 %
05
14
#3820000
b10111111 +
b11111011001011 *
b1111 %
15
#3840000
b11000000 +
b1100001100 *
b1100 &
b0 %
05
04
03
02
09
08
17
b1100 -
b1100 (
#3860000
b11000001 +
b11100001100 *
b1 %
15
#3880000
b11000010 +
b101100001100 *
b10 %
05
14
#3900000
b11000011 +
b111100001100 *
b11 %
15
#3920000
b11000100 +
b1001100001100 *
b100 %
05
04
13
#3940000
b11000101 +
b1011100001100 *
b101 %
15
#3960000
b11000110 +
b1101100001100 *
b110 %
05
14
#3980000
b11000111 +
b1111100001100 *
b111 %
15
#4000000
b11001000 +
b10001100001100 *
b1000 %
05
04
03
12
#4020000
b11001001 +
b10011100001100 *
b1001 %
15
#4040000
b11001010 +
b10101100001100 *
b1010 %
05
14
#4060000
b11001011 +
b10111100001100 *
b1011 %
15
#4080000
b11001100 +
b11001100001100 *
b1100 %
05
04
13
#4100000
b11001101 +
b11011100001100 *
b1101 %
15
#4120000
b11001110 +
b11101100001100 *
b1110 %
05
14
#4140000
b11001111 +
b11111100001100 *
b1111 %
15
#4160000
b11010000 +
b1101001101 *
b1101 &
b0 %
05
04
03
02
19
b1101 -
b1101 (
#4180000
b11010001 +
b11101001101 *
b1 %
15
#4200000
b11010010 +
b101101001101 *
b10 %
05
14
#4220000
b11010011 +
b111101001101 *
b11 %
15
#4240000
b11010100 +
b1001101001101 *
b100 %
05
04
13
#4260000
b11010101 +
b1011101001101 *
b101 %
15
#4280000
b11010110 +
b1101101001101 *
b110 %
05
14
#4300000
b11010111 +
b1111101001101 *
b111 %
15
#4320000
b11011000 +
b10001101001101 *
b1000 %
05
04
03
12
#4340000
b11011001 +
b10011101001101 *
b1001 %
15
#4360000
b11011010 +
b10101101001101 *
b1010 %
05
14
#4380000
b11011011 +
b10111101001101 *
b1011 %
15
#4400000
b11011100 +
b11001101001101 *
b1100 %
05
04
13
#4420000
b11011101 +
b11011101001101 *
b1101 %
15
#4440000
b11011110 +
b11101101001101 *
b1110 %
05
14
#4460000
b11011111 +
b11111101001101 *
b1111 %
15
#4480000
b11100000 +
b1110001110 *
b1110 &
b0 %
05
04
03
02
09
18
b1110 -
b1110 (
#4500000
b11100001 +
b11110001110 *
b1 %
15
#4520000
b11100010 +
b101110001110 *
b10 %
05
14
#4540000
b11100011 +
b111110001110 *
b11 %
15
#4560000
b11100100 +
b1001110001110 *
b100 %
05
04
13
#4580000
b11100101 +
b1011110001110 *
b101 %
15
#4600000
b11100110 +
b1101110001110 *
b110 %
05
14
#4620000
b11100111 +
b1111110001110 *
b111 %
15
#4640000
b11101000 +
b10001110001110 *
b1000 %
05
04
03
12
#4660000
b11101001 +
b10011110001110 *
b1001 %
15
#4680000
b11101010 +
b10101110001110 *
b1010 %
05
14
#4700000
b11101011 +
b10111110001110 *
b1011 %
15
#4720000
b11101100 +
b11001110001110 *
b1100 %
05
04
13
#4740000
b11101101 +
b11011110001110 *
b1101 %
15
#4760000
b11101110 +
b11101110001110 *
b1110 %
05
14
#4780000
b11101111 +
b11111110001110 *
b1111 %
15
#4800000
b11110000 +
b1111001111 *
b1111 &
b0 %
05
04
03
02
19
b1111 -
b1111 (
#4820000
b11110001 +
b11111001111 *
b1 %
15
#4840000
b11110010 +
b101111001111 *
b10 %
05
14
#4860000
b11110011 +
b111111001111 *
b11 %
15
#4880000
b11110100 +
b1001111001111 *
b100 %
05
04
13
#4900000
b11110101 +
b1011111001111 *
b101 %
15
#4920000
b11110110 +
b1101111001111 *
b110 %
05
14
#4940000
b11110111 +
b1111111001111 *
b111 %
15
#4960000
b11111000 +
b10001111001111 *
b1000 %
05
04
03
12
#4980000
b11111001 +
b10011111001111 *
b1001 %
15
#5000000
b11111010 +
b10101111001111 *
b1010 %
05
14
#5020000
b11111011 +
b10111111001111 *
b1011 %
15
#5040000
b11111100 +
b11001111001111 *
b1100 %
05
04
13
#5060000
b11111101 +
b11011111001111 *
b1101 %
15
#5080000
b11111110 +
b11101111001111 *
b1110 %
05
14
#5100000
b11111111 +
b11111111001111 *
b1111 %
15
#5120000
b100000000 +
b100000 *
1'
b0 &
b0 %
1:
05
04
03
02
09
08
07
06
b0 -
b0 (
#5140000
b100000001 +
b10000100000 *
b1 %
15
#5160000
b100000010 +
b100000100000 *
b10 %
05
14
#5180000
b100000011 +
b110000100000 *
b11 %
15
#5200000
b100000100 +
b1000000100000 *
b100 %
05
04
13
#5220000
b100000101 +
b1010000100000 *
b101 %
15
#5240000
b100000110 +
b1100000100000 *
b110 %
05
14
#5260000
b100000111 +
b1110000100000 *
b111 %
15
#5280000
b100001000 +
b10000000100000 *
b1000 %
05
04
03
12
#5300000
b100001001 +
b10010000100000 *
b1001 %
15
#5320000
b100001010 +
b10100000100000 *
b1010 %
05
14
#5340000
b100001011 +
b10110000100000 *
b1011 %
15
#5360000
b100001100 +
b11000000100000 *
b1100 %
05
04
13
#5380000
b100001101 +
b11010000100000 *
b1101 %
15
#5400000
b100001110 +
b11100000100000 *
b1110 %
05
14
#5420000
b100001111 +
b11110000100000 *
b1111 %
15
#5440000
b100010000 +
b1100001 *
b1 &
b0 %
05
04
03
02
19
b1 -
b1 (
#5460000
b100010001 +
b10001100001 *
b1 %
15
#5480000
b100010010 +
b100001100001 *
b10 %
05
14
#5500000
b100010011 +
b110001100001 *
b11 %
15
#5520000
b100010100 +
b1000001100001 *
b100 %
05
04
13
#5540000
b100010101 +
b1010001100001 *
b101 %
15
#5560000
b100010110 +
b1100001100001 *
b110 %
05
14
#5580000
b100010111 +
b1110001100001 *
b111 %
15
#5600000
b100011000 +
b10000001100001 *
b1000 %
05
04
03
12
#5620000
b100011001 +
b10010001100001 *
b1001 %
15
#5640000
b100011010 +
b10100001100001 *
b1010 %
05
14
#5660000
b100011011 +
b10110001100001 *
b1011 %
15
#5680000
b100011100 +
b11000001100001 *
b1100 %
05
04
13
#5700000
b100011101 +
b11010001100001 *
b1101 %
15
#5720000
b100011110 +
b11100001100001 *
b1110 %
05
14
#5740000
b100011111 +
b11110001100001 *
b1111 %
15
#5760000
b100100000 +
b10100010 *
b10 &
b0 %
05
04
03
02
09
18
b10 -
b10 (
#5780000
b100100001 +
b10010100010 *
b1 %
15
#5800000
b100100010 +
b100010100010 *
b10 %
05
14
#5820000
b100100011 +
b110010100010 *
b11 %
15
#5840000
b100100100 +
b1000010100010 *
b100 %
05
04
13
#5860000
b100100101 +
b1010010100010 *
b101 %
15
#5880000
b100100110 +
b1100010100010 *
b110 %
05
14
#5900000
b100100111 +
b1110010100010 *
b111 %
15
#5920000
b100101000 +
b10000010100010 *
b1000 %
05
04
03
12
#5940000
b100101001 +
b10010010100010 *
b1001 %
15
#5960000
b100101010 +
b10100010100010 *
b1010 %
05
14
#5980000
b100101011 +
b10110010100010 *
b1011 %
15
#6000000
b100101100 +
b11000010100010 *
b1100 %
05
04
13
#6020000
b100101101 +
b11010010100010 *
b1101 %
15
#6040000
b100101110 +
b11100010100010 *
b1110 %
05
14
#6060000
b100101111 +
b11110010100010 *
b1111 %
15
#6080000
b100110000 +
b11100011 *
b11 &
b0 %
05
04
03
02
19
b11 -
b11 (
#6100000
b100110001 +
b10011100011 *
b1 %
15
#6120000
b100110010 +
b100011100011 *
b10 %
05
14
#6140000
b100110011 +
b110011100011 *
b11 %
15
#6160000
b100110100 +
b1000011100011 *
b100 %
05
04
13
#6180000
b100110101 +
b1010011100011 *
b101 %
15
#6200000
b100110110 +
b1100011100011 *
b110 %
05
14
#6220000
b100110111 +
b1110011100011 *
b111 %
15
#6240000
b100111000 +
b10000011100011 *
b1000 %
05
04
03
12
#6260000
b100111001 +
b10010011100011 *
b1001 %
15
#6280000
b100111010 +
b10100011100011 *
b1010 %
05
14
#6300000
b100111011 +
b10110011100011 *
b1011 %
15
#6320000
b100111100 +
b11000011100011 *
b1100 %
05
04
13
#6340000
b100111101 +
b11010011100011 *
b1101 %
15
#6360000
b100111110 +
b11100011100011 *
b1110 %
05
14
#6380000
b100111111 +
b11110011100011 *
b1111 %
15
#6400000
b101000000 +
b100100100 *
b100 &
b0 %
05
04
03
02
09
08
17
b100 -
b100 (
#6420000
b101000001 +
b10100100100 *
b1 %
15
#6440000
b101000010 +
b100100100100 *
b10 %
05
14
#6460000
b101000011 +
b110100100100 *
b11 %
15
#6480000
b101000100 +
b1000100100100 *
b100 %
05
04
13
#6500000
b101000101 +
b1010100100100 *
b101 %
15
#6520000
b101000110 +
b1100100100100 *
b110 %
05
14
#6540000
b101000111 +
b1110100100100 *
b111 %
15
#6560000
b101001000 +
b10000100100100 *
b1000 %
05
04
03
12
#6580000
b101001001 +
b10010100100100 *
b1001 %
15
#6600000
b101001010 +
b10100100100100 *
b1010 %
05
14
#6620000
b101001011 +
b10110100100100 *
b1011 %
15
#6640000
b101001100 +
b11000100100100 *
b1100 %
05
04
13
#6660000
b101001101 +
b11010100100100 *
b1101 %
15
#6680000
b101001110 +
b11100100100100 *
b1110 %
05
14
#6700000
b101001111 +
b11110100100100 *
b1111 %
15
#6720000
b101010000 +
b101100101 *
b101 &
b0 %
05
04
03
02
19
b101 -
b101 (
#6740000
b101010001 +
b10101100101 *
b1 %
15
#6760000
b101010010 +
b100101100101 *
b10 %
05
14
#6780000
b101010011 +
b110101100101 *
b11 %
15
#6800000
b101010100 +
b1000101100101 *
b100 %
05
04
13
#6820000
b101010101 +
b1010101100101 *
b101 %
15
#6840000
b101010110 +
b1100101100101 *
b110 %
05
14
#6860000
b101010111 +
b1110101100101 *
b111 %
15
#6880000
b101011000 +
b10000101100101 *
b1000 %
05
04
03
12
#6900000
b101011001 +
b10010101100101 *
b1001 %
15
#6920000
b101011010 +
b10100101100101 *
b1010 %
05
14
#6940000
b101011011 +
b10110101100101 *
b1011 %
15
#6960000
b101011100 +
b11000101100101 *
b1100 %
05
04
13
#6980000
b101011101 +
b11010101100101 *
b1101 %
15
#7000000
b101011110 +
b11100101100101 *
b1110 %
05
14
#7020000
b101011111 +
b11110101100101 *
b1111 %
15
#7040000
b101100000 +
b110100110 *
b110 &
b0 %
05
04
03
02
09
18
b110 -
b110 (
#7060000
b101100001 +
b10110100110 *
b1 %
15
#7080000
b101100010 +
b100110100110 *
b10 %
05
14
#7100000
b101100011 +
b110110100110 *
b11 %
15
#7120000
b101100100 +
b1000110100110 *
b100 %
05
04
13
#7140000
b101100101 +
b1010110100110 *
b101 %
15
#7160000
b101100110 +
b1100110100110 *
b110 %
05
14
#7180000
b101100111 +
b1110110100110 *
b111 %
15
#7200000
b101101000 +
b10000110100110 *
b1000 %
05
04
03
12
#7220000
b101101001 +
b10010110100110 *
b1001 %
15
#7240000
b101101010 +
b10100110100110 *
b1010 %
05
14
#7260000
b101101011 +
b10110110100110 *
b1011 %
15
#7280000
b101101100 +
b11000110100110 *
b1100 %
05
04
13
#7300000
b101101101 +
b11010110100110 *
b1101 %
15
#7320000
b101101110 +
b11100110100110 *
b1110 %
05
14
#7340000
b101101111 +
b11110110100110 *
b1111 %
15
#7360000
b101110000 +
b111100111 *
b111 &
b0 %
05
04
03
02
19
b111 -
b111 (
#7380000
b101110001 +
b10111100111 *
b1 %
15
#7400000
b101110010 +
b100111100111 *
b10 %
05
14
#7420000
b101110011 +
b110111100111 *
b11 %
15
#7440000
b101110100 +
b1000111100111 *
b100 %
05
04
13
#7460000
b101110101 +
b1010111100111 *
b101 %
15
#7480000
b101110110 +
b1100111100111 *
b110 %
05
14
#7500000
b101110111 +
b1110111100111 *
b111 %
15
#7520000
b101111000 +
b10000111100111 *
b1000 %
05
04
03
12
#7540000
b101111001 +
b10010111100111 *
b1001 %
15
#7560000
b101111010 +
b10100111100111 *
b1010 %
05
14
#7580000
b101111011 +
b10110111100111 *
b1011 %
15
#7600000
b101111100 +
b11000111100111 *
b1100 %
05
04
13
#7620000
b101111101 +
b11010111100111 *
b1101 %
15
#7640000
b101111110 +
b11100111100111 *
b1110 %
05
14
#7660000
b101111111 +
b11110111100111 *
b1111 %
15
#7680000
b110000000 +
b1000101000 *
b1000 &
b0 %
05
04
03
02
09
08
07
16
b1000 -
b1000 (
#7700000
b110000001 +
b11000101000 *
b1 %
15
#7720000
b110000010 +
b101000101000 *
b10 %
05
14
#7740000
b110000011 +
b111000101000 *
b11 %
15
#7760000
b110000100 +
b1001000101000 *
b100 %
05
04
13
#7780000
b110000101 +
b1011000101000 *
b101 %
15
#7800000
b110000110 +
b1101000101000 *
b110 %
05
14
#7820000
b110000111 +
b1111000101000 *
b111 %
15
#7840000
b110001000 +
b10001000101000 *
b1000 %
05
04
03
12
#7860000
b110001001 +
b10011000101000 *
b1001 %
15
#7880000
b110001010 +
b10101000101000 *
b1010 %
05
14
#7900000
b110001011 +
b10111000101000 *
b1011 %
15
#7920000
b110001100 +
b11001000101000 *
b1100 %
05
04
13
#7940000
b110001101 +
b11011000101000 *
b1101 %
15
#7960000
b110001110 +
b11101000101000 *
b1110 %
05
14
#7980000
b110001111 +
b11111000101000 *
b1111 %
15
#8000000
b110010000 +
b1001101001 *
b1001 &
b0 %
05
04
03
02
19
b1001 -
b1001 (
#8020000
b110010001 +
b11001101001 *
b1 %
15
#8040000
b110010010 +
b101001101001 *
b10 %
05
14
#8060000
b110010011 +
b111001101001 *
b11 %
15
#8080000
b110010100 +
b1001001101001 *
b100 %
05
04
13
#8100000
b110010101 +
b1011001101001 *
b101 %
15
#8120000
b110010110 +
b1101001101001 *
b110 %
05
14
#8140000
b110010111 +
b1111001101001 *
b111 %
15
#8160000
b110011000 +
b10001001101001 *
b1000 %
05
04
03
12
#8180000
b110011001 +
b10011001101001 *
b1001 %
15
#8200000
b110011010 +
b10101001101001 *
b1010 %
05
14
#8220000
b110011011 +
b10111001101001 *
b1011 %
15
#8240000
b110011100 +
b11001001101001 *
b1100 %
05
04
13
#8260000
b110011101 +
b11011001101001 *
b1101 %
15
#8280000
b110011110 +
b11101001101001 *
b1110 %
05
14
#8300000
b110011111 +
b11111001101001 *
b1111 %
15
#8320000
b110100000 +
b1010101010 *
b1010 &
b0 %
05
04
03
02
09
18
b1010 -
b1010 (
#8340000
b110100001 +
b11010101010 *
b1 %
15
#8360000
b110100010 +
b101010101010 *
b10 %
05
14
#8380000
b110100011 +
b111010101010 *
b11 %
15
#8400000
b110100100 +
b1001010101010 *
b100 %
05
04
13
#8420000
b110100101 +
b1011010101010 *
b101 %
15
#8440000
b110100110 +
b1101010101010 *
b110 %
05
14
#8460000
b110100111 +
b1111010101010 *
b111 %
15
#8480000
b110101000 +
b10001010101010 *
b1000 %
05
04
03
12
#8500000
b110101001 +
b10011010101010 *
b1001 %
15
#8520000
b110101010 +
b10101010101010 *
b1010 %
05
14
#8540000
b110101011 +
b10111010101010 *
b1011 %
15
#8560000
b110101100 +
b11001010101010 *
b1100 %
05
04
13
#8580000
b110101101 +
b11011010101010 *
b1101 %
15
#8600000
b110101110 +
b11101010101010 *
b1110 %
05
14
#8620000
b110101111 +
b11111010101010 *
b1111 %
15
#8640000
b110110000 +
b1011101011 *
b1011 &
b0 %
05
04
03
02
19
b1011 -
b1011 (
#8660000
b110110001 +
b11011101011 *
b1 %
15
#8680000
b110110010 +
b101011101011 *
b10 %
05
14
#8700000
b110110011 +
b111011101011 *
b11 %
15
#8720000
b110110100 +
b1001011101011 *
b100 %
05
04
13
#8740000
b110110101 +
b1011011101011 *
b101 %
15
#8760000
b110110110 +
b1101011101011 *
b110 %
05
14
#8780000
b110110111 +
b1111011101011 *
b111 %
15
#8800000
b110111000 +
b10001011101011 *
b1000 %
05
04
03
12
#8820000
b110111001 +
b10011011101011 *
b1001 %
15
#8840000
b110111010 +
b10101011101011 *
b1010 %
05
14
#8860000
b110111011 +
b10111011101011 *
b1011 %
15
#8880000
b110111100 +
b11001011101011 *
b1100 %
05
04
13
#8900000
b110111101 +
b11011011101011 *
b1101 %
15
#8920000
b110111110 +
b11101011101011 *
b1110 %
05
14
#8940000
b110111111 +
b11111011101011 *
b1111 %
15
#8960000
b111000000 +
b1100101100 *
b1100 &
b0 %
05
04
03
02
09
08
17
b1100 -
b1100 (
#8980000
b111000001 +
b11100101100 *
b1 %
15
#9000000
b111000010 +
b101100101100 *
b10 %
05
14
#9020000
b111000011 +
b111100101100 *
b11 %
15
#9040000
b111000100 +
b1001100101100 *
b100 %
05
04
13
#9060000
b111000101 +
b1011100101100 *
b101 %
15
#9080000
b111000110 +
b1101100101100 *
b110 %
05
14
#9100000
b111000111 +
b1111100101100 *
b111 %
15
#9120000
b111001000 +
b10001100101100 *
b1000 %
05
04
03
12
#9140000
b111001001 +
b10011100101100 *
b1001 %
15
#9160000
b111001010 +
b10101100101100 *
b1010 %
05
14
#9180000
b111001011 +
b10111100101100 *
b1011 %
15
#9200000
b111001100 +
b11001100101100 *
b1100 %
05
04
13
#9220000
b111001101 +
b11011100101100 *
b1101 %
15
#9240000
b111001110 +
b11101100101100 *
b1110 %
05
14
